A	B	Aout	Bout	Alev	Blev	BhatLS1	BhatLS2	BhatLS3	BhatLS4
1	3.17003	1	3.17003	1	3.17003	3.20405	7.99693	8.57878	3.07565
2	6.57993	2	20	2	6.57993	6.12929	9.9636	9.35299	6.05251
3	8.28569	3	8.28569	3	8.28569	9.05454	11.9303	10.1272	9.02937
4	12.2726	13.75	12.2726	4	12.2726	11.9798	13.8969	18.45	12.0062
5	15.1008	5	15.1008	5	15.1008	14.905	15.8636	11.6756	14.9831
6	17.5865	6	17.5865	6	17.5865	17.8303	17.8303	12.4498	17.9599
7	20.8629	7	20.8629	15	44.8629	20.7555	19.7969	13.224	44.7517
