A	B	Aout	Bout	Alev	Blev	BhatLS1	BhatLS2	BhatLS3	BhatLS4	BhatLMS1	BhatLMS2	BhatLMS3	BhatLMS4	BhatMHuber1	BhatMHuber2	BhatMHuber3	BhatMHuber4	BhatMMyriad1	BhatMMyriad2	BhatMMyriad3	BhatMMyriad4
1	3.17003	1	3.17003	1	3.17003	3.20405	7.99693	8.57878	3.07565	3.42621	2.92151	2.77905	2.9507	3.3015	3.40049	8.57878	3.1741	3.3496	3.18602	7.72673	3.22792
2	6.57993	2	20	2	6.57993	6.12929	9.9636	9.35299	6.05251	6.28963	5.90421	5.72786	5.92691	6.21282	6.28885	9.35299	6.14658	6.26802	6.12857	8.6439	6.20089
3	8.28569	3	8.28569	3	8.28569	9.05454	11.9303	10.1272	9.02937	9.15304	8.8869	8.67667	8.90312	9.12414	9.1772	10.1272	9.11906	9.18643	9.07112	9.56107	9.17386
4	12.2726	13.75	12.2726	4	12.2726	11.9798	13.8969	18.45	12.0062	12.0165	11.8696	40.3764	11.8793	12.0355	12.0656	18.45	12.0915	12.1048	12.0137	19.4206	12.1468
5	15.1008	5	15.1008	5	15.1008	14.905	15.8636	11.6756	14.9831	14.8799	14.8523	14.5743	14.8555	14.9468	14.9539	11.6756	15.064	15.0233	14.9562	11.3954	15.1198
6	17.5865	6	17.5865	6	17.5865	17.8303	17.8303	12.4498	17.9599	17.7433	17.835	17.5231	17.8317	17.8581	17.8423	12.4498	18.0365	17.9417	17.8988	12.3126	18.0928
7	20.8629	7	20.8629	15	44.8629	20.7555	19.7969	13.224	44.7517	20.6067	20.8177	20.4719	44.6176	20.7694	20.7306	13.224	44.7888	20.8601	20.8413	13.2297	44.8495
